^C:\Users\Денис\source\repos\helloWorld\helloWorld.vcxproj
C:\Users\Денис\source\repos\helloWorld\Release\helloWorld.ipdb
C:\Users\Денис\source\repos\helloWorld\Release\helloWorld.iobj
^C:\Users\Денис\source\repos\helloWorld\helloWorld.vcxproj
C:\Users\Денис\source\repos\helloWorld\Release\helloWorld.ipdb
C:\Users\Денис\source\repos\helloWorld\Release\helloWorld.iobj
