^C:\USERS\ДЕНИС\SOURCE\REPOS\HELLOWORLD\DEBUG\HELLOWORLD.OBJ
C:\USERS\Денис\SOURCE\REPOS\HELLOWORLD\DEBUG\HELLOWORLD.EXE
C:\USERS\Денис\SOURCE\REPOS\HELLOWORLD\DEBUG\HELLOWORLD.ILK
C:\USERS\ДЕНИС\SOURCE\REPOS\HELLOWORLD\DEBUG\HELLOWORLD.PDB
